######################################################################
## PARAM_CARD AUTOMATICALY GENERATED BY THE UFO  #####################
######################################################################

###################################
## INFORMATION FOR SMINPUTS
###################################
Block SMINPUTS 
    1 1.279000e+02 # aEWM1 
    2 1.166390e-05 # Gf 
    3 1.180000e-01 # aS 

###################################
## INFORMATION FOR MASS
###################################
Block MASS 
    5 0.000000e+00 # MB 
    6 1.720000e+02 # MT 
   15 1.777000e+00 # MTA 
   23 9.118760e+01 # MZ 
   25 1.250000e+02 # mh1 
     35 1000 # mh2
     36 1000 # mh3
     37 1000 # mhc
     55 350 # mh4
     1000022 10.0 # MXd
##  Not dependent paramater.
## Those values should be edited following analytical the 
## analytical expression. Some generator could simply ignore 
## those values and use the analytical expression
  22 0.000000 # a : 0.0 
  24 79.824660 # W+ : cmath.sqrt(MZ**2/2. + cmath.sqrt(MZ**4/4. - (aEW*cmath.pi*MZ**2)/(Gf*cmath.sqrt(2)))) 
  21 0.000000 # g : 0.0 
  9000001 0.000000 # ghA : 0.0 
  9000003 79.824660 # ghWp : cmath.sqrt(MZ**2/2. + cmath.sqrt(MZ**4/4. - (aEW*cmath.pi*MZ**2)/(Gf*cmath.sqrt(2)))) 
  9000004 79.824660 # ghWm : cmath.sqrt(MZ**2/2. + cmath.sqrt(MZ**4/4. - (aEW*cmath.pi*MZ**2)/(Gf*cmath.sqrt(2)))) 
  82 0.000000 # ghG : 0.0 
  12 0.000000 # ve : 0.0 
  14 0.000000 # vm : 0.0 
  16 0.000000 # vt : 0.0 
  11 0.000000 # e- : 0.0 
  13 0.000000 # mu- : 0.0 
  2 0.000000 # u : 0.0 
  4 0.000000 # c : 0.0 
  1 0.000000 # d : 0.0 
  3 0.000000 # s : 0.0 
  251 79.824660 # G+ : cmath.sqrt(MZ**2/2. + cmath.sqrt(MZ**4/4. - (aEW*cmath.pi*MZ**2)/(Gf*cmath.sqrt(2)))) 
  9000002 91.187600 # ghZ : MZ 
  250 91.187600 # G0 : MZ 

###################################
## INFORMATION FOR DECAY
###################################
DECAY   6 1.508336e+00 
DECAY  23 2.495200e+00 
DECAY  24 2.085000e+00 
DECAY  25 Auto 
DECAY  35 Auto 
DECAY  36 Auto 
DECAY  37 Auto 
DECAY  55 Auto 
##  Not dependent paramater.
## Those values should be edited following analytical the 
## analytical expression. Some generator could simply ignore 
## those values and use the analytical expression
DECAY  22 0.000000 # a : 0.0 
DECAY  21 0.000000 # g : 0.0 
DECAY  9000001 0.000000 # ghA : 0.0 
DECAY  9000002 0.000000 # ghZ : 0.0 
DECAY  9000003 0.000000 # ghWp : 0.0 
DECAY  9000004 0.000000 # ghWm : 0.0 
DECAY  82 0.000000 # ghG : 0.0 
DECAY  12 0.000000 # ve : 0.0 
DECAY  14 0.000000 # vm : 0.0 
DECAY  16 0.000000 # vt : 0.0 
DECAY  11 0.000000 # e- : 0.0 
DECAY  13 0.000000 # mu- : 0.0 
DECAY  15 0.000000 # ta- : 0.0 
DECAY  2 0.000000 # u : 0.0 
DECAY  4 0.000000 # c : 0.0 
DECAY  1 0.000000 # d : 0.0 
DECAY  3 0.000000 # s : 0.0 
DECAY  5 0.000000 # b : 0.0 
DECAY  1000022 0.000000 # Xd : 0.0 
DECAY  250 2.495200 # G0 : WZ 
DECAY  251 2.085000 # G+ : WW 

###################################
## INFORMATION FOR DMINPUTS
###################################
Block DMINPUTS 
     1 1.0 # gPXd

###################################
## INFORMATION FOR FRBLOCK
###################################
Block FRBlock 
     2 1.0 # tanbeta
     3 1.0 # sinbma

###################################
## INFORMATION FOR HIGGS
###################################
Block Higgs 
     1 3.0 # lam3
     2 3.0 # laP1
     3 3.0 # laP2
     5 0.35 # sinp

###################################
## INFORMATION FOR LOOP
###################################
Block LOOP 
    1 9.118800e+01 # MU_R 

###################################
## INFORMATION FOR YUKAWA
###################################
Block YUKAWA 
    5 4.700000e+00 # ymb 
    6 1.720000e+02 # ymt 
   15 1.777000e+00 # ymtau 
#===========================================================
# QUANTUM NUMBERS OF NEW STATE(S) (NON SM PDG CODE)
#===========================================================

Block QNUMBERS 9000001  # ghA 
        1 0  # 3 times electric charge
        2 -1  # number of spin states (2S+1)
        3 1  # colour rep (1: singlet, 3: triplet, 8: octet)
        4 1  # Particle/Antiparticle distinction (0=own anti)
Block QNUMBERS 9000002  # ghZ 
        1 0  # 3 times electric charge
        2 -1  # number of spin states (2S+1)
        3 1  # colour rep (1: singlet, 3: triplet, 8: octet)
        4 1  # Particle/Antiparticle distinction (0=own anti)
Block QNUMBERS 9000003  # ghWp 
        1 3  # 3 times electric charge
        2 -1  # number of spin states (2S+1)
        3 1  # colour rep (1: singlet, 3: triplet, 8: octet)
        4 1  # Particle/Antiparticle distinction (0=own anti)
Block QNUMBERS 9000004  # ghWm 
        1 -3  # 3 times electric charge
        2 -1  # number of spin states (2S+1)
        3 1  # colour rep (1: singlet, 3: triplet, 8: octet)
        4 1  # Particle/Antiparticle distinction (0=own anti)
Block QNUMBERS 82  # ghG 
        1 0  # 3 times electric charge
        2 -1  # number of spin states (2S+1)
        3 8  # colour rep (1: singlet, 3: triplet, 8: octet)
        4 1  # Particle/Antiparticle distinction (0=own anti)
Block QNUMBERS 250  # G0 
        1 0  # 3 times electric charge
        2 1  # number of spin states (2S+1)
        3 1  # colour rep (1: singlet, 3: triplet, 8: octet)
        4 0  # Particle/Antiparticle distinction (0=own anti)
Block QNUMBERS 251  # G+ 
        1 3  # 3 times electric charge
        2 1  # number of spin states (2S+1)
        3 1  # colour rep (1: singlet, 3: triplet, 8: octet)
        4 1  # Particle/Antiparticle distinction (0=own anti)
Block QNUMBERS 37  # h+ 
        1 3  # 3 times electric charge
        2 1  # number of spin states (2S+1)
        3 1  # colour rep (1: singlet, 3: triplet, 8: octet)
        4 1  # Particle/Antiparticle distinction (0=own anti)
Block QNUMBERS 35  # h2 
        1 0  # 3 times electric charge
        2 1  # number of spin states (2S+1)
        3 1  # colour rep (1: singlet, 3: triplet, 8: octet)
        4 0  # Particle/Antiparticle distinction (0=own anti)
Block QNUMBERS 36  # h3 
        1 0  # 3 times electric charge
        2 1  # number of spin states (2S+1)
        3 1  # colour rep (1: singlet, 3: triplet, 8: octet)
        4 0  # Particle/Antiparticle distinction (0=own anti)
Block QNUMBERS 55  # h4 
        1 0  # 3 times electric charge
        2 1  # number of spin states (2S+1)
        3 1  # colour rep (1: singlet, 3: triplet, 8: octet)
        4 0  # Particle/Antiparticle distinction (0=own anti)
Block QNUMBERS 1000022  # Xd 
        1 0  # 3 times electric charge
        2 2  # number of spin states (2S+1)
        3 1  # colour rep (1: singlet, 3: triplet, 8: octet)
        4 1  # Particle/Antiparticle distinction (0=own anti)
